0000.000 (0) Opened log file at time: Thu, 23 Apr 2015 03:26:16 +0000 on http://pharmaweb.mdaminul.info
0000.005 (0) UpdraftPlus WordPress backup plugin (http://updraftplus.com): 1.9.15 WP: 3.9.4 PHP: 5.4.35 (Linux server112.web-hosting.com 2.6.32-531.23.3.lve1.3.6.el6.x86_64 #1 SMP Mon Sep 29 16:27:54 CEST 2014 x86_64) MySQL: 5.5.41-cll-lve Server: Apache safe_mode: 0 max_execution_time: 900 memory_limit: 168M (used: 28.7M | 29.3M) multisite: N mcrypt: Y ZipArchive::addFile: Y W3TC/ObjectCache: N
0000.187 (0) Free space on disk containing Updraft's temporary directory: 1402529.3 Mb
0000.254 (0) Tasks: Backup files:  (schedule: twicedaily) Backup DB: 1 (schedule: twicedaily)
0000.256 (0) Processed schedules. Tasks now: Backup files:  Backup DB: 
0000.266 (0) No email will be sent - this backup set was empty.
0000.310 (0) The backup apparently succeeded and is now complete
